<?xml version="1.0" encoding="utf-8"?>
<!-- Generator: Adobe Illustrator 24.0.0, SVG Export Plug-In . SVG Version: 6.00 Build 0)  -->
<svg version="1.1" id="Layer_1" xmlns="http://www.w3.org/2000/svg" xmlns:xlink="http://www.w3.org/1999/xlink" x="0px" y="0px"
	 viewBox="0 0 153.64 36" style="enable-background:new 0 0 153.64 36;" xml:space="preserve">
<style type="text/css">
	.st0{fill:#F05B36;}
	.st1{fill:#FFFFFF;}
	.st2{fill:#06EEF4;}
</style>
<path class="st0" d="M26.77,13.45c-0.6,6.56-2.78,13.45-7.66,19.25c-3.35,3.99-6.89,4.3-11.16,1.25C1.77,29.57-1.96,16.11,1.08,9.19
	C3.45,3.79,13.5-1.17,19.19,0.24C23.84,1.4,26.78,6.17,26.77,13.45z M11.85,19.9c2.09,0,3.8-0.01,5.52,0
	c1.22,0.01,2.08-0.37,2.11-1.75c0.04-1.45-0.84-1.72-2.07-1.68c-1.79,0.05-3.59,0.01-5.53,0.01c0.03-1.4-0.28-2.42,0.29-3.53
	c2.92-0.49,5.92,0.25,8.87-0.45c0.12-1.04,0.31-1.97-0.21-3.17c-3.65,0-7.38,0-11.11,0c-0.9,0-1.55,0.37-1.55,1.3
	c-0.03,5.71-0.01,11.43-0.01,17.86c1.39-1.49,2.53-0.48,3.7-0.81C11.85,25.12,11.85,22.73,11.85,19.9z"/>
<path class="st1" d="M11.85,19.9c0,2.83,0,5.22,0,7.79c-1.17,0.33-2.31-0.67-3.7,0.81c0-6.43-0.01-12.15,0.01-17.86
	c0-0.94,0.65-1.31,1.55-1.3c3.73,0.01,7.46,0,11.11,0c0.52,1.2,0.33,2.13,0.21,3.17c-2.95,0.69-5.95-0.04-8.87,0.45
	c-0.57,1.11-0.27,2.13-0.29,3.53c1.94,0,3.74,0.04,5.53-0.01c1.23-0.04,2.11,0.24,2.07,1.68c-0.03,1.38-0.9,1.76-2.11,1.75
	C15.65,19.89,13.93,19.9,11.85,19.9z"/>
<path class="st0" d="M58.89,0c6.45-0.02,11.15,4.55,11.13,10.83c-0.02,6.2-4.82,10.88-11.16,10.9c-6.29,0.01-11.24-4.78-11.23-10.89
	C47.64,4.76,52.56,0.02,58.89,0z M65.11,11.01c0.06-3.77-2.44-6.58-6-6.73c-3.7-0.16-6.55,2.7-6.53,6.57
	c0.02,3.59,2.81,6.57,6.23,6.63C62.29,17.54,65.05,14.71,65.11,11.01z"/>
<path class="st0" d="M99.03,0c6.45-0.02,11.15,4.55,11.13,10.83c-0.02,6.2-4.82,10.88-11.16,10.9c-6.29,0.01-11.24-4.78-11.23-10.89
	C87.78,4.76,92.7,0.02,99.03,0z M105.25,11.01c0.06-3.77-2.44-6.58-6-6.73c-3.7-0.16-6.55,2.7-6.53,6.57
	c0.02,3.59,2.81,6.57,6.23,6.63C102.43,17.54,105.19,14.71,105.25,11.01z"/>
<g>
	<g>
		<path class="st0" d="M34.15,24.68c1.58,0,2.36,0.87,2.36,2.11c0,1.01-0.42,1.65-1.25,1.93c1.24,0.19,1.86,0.91,1.86,2.15
			c0,1.46-0.9,2.35-2.73,2.35h-2.67c-0.29,0-0.35-0.05-0.35-0.33v-7.56h-0.25c-0.3-0.08-0.45-0.24-0.45-0.49
			c0-0.15,0.04-0.16,0.27-0.16H34.15z M32.26,25.44v2.95h1.81c0.98,0,1.52-0.53,1.52-1.48c0-0.98-0.55-1.47-1.65-1.47H32.26z
			 M32.26,29.15v3.3h1.98c1.3,0,1.95-0.56,1.95-1.67c0-1.1-0.65-1.64-1.95-1.64H32.26z"/>
		<path class="st0" d="M51.79,32.18c-0.69,0.8-1.72,1.19-3.11,1.19s-2.42-0.4-3.12-1.19c-0.69-0.81-1.04-1.88-1.04-3.22
			c0-1.36,0.35-2.45,1.06-3.27c0.71-0.83,1.74-1.24,3.1-1.24c1.36,0,2.4,0.41,3.1,1.24c0.7,0.82,1.05,1.91,1.05,3.27
			C52.83,30.3,52.48,31.37,51.79,32.18z M46.22,31.58c0.53,0.69,1.35,1.04,2.46,1.04c2.4,0,3.24-1.74,3.24-3.67
			c0-1.98-0.88-3.74-3.24-3.74c-0.76,0-1.39,0.18-1.89,0.54c-1,0.71-1.36,1.81-1.36,3.2C45.43,30.01,45.69,30.89,46.22,31.58z"/>
		<path class="st0" d="M67.55,32.18c-0.69,0.8-1.72,1.19-3.11,1.19c-1.39,0-2.42-0.4-3.12-1.19c-0.69-0.81-1.04-1.88-1.04-3.22
			c0-1.36,0.35-2.45,1.06-3.27c0.71-0.83,1.74-1.24,3.1-1.24c1.36,0,2.4,0.41,3.1,1.24c0.7,0.82,1.05,1.91,1.05,3.27
			C68.59,30.3,68.24,31.37,67.55,32.18z M61.98,31.58c0.53,0.69,1.35,1.04,2.46,1.04c2.4,0,3.24-1.74,3.24-3.67
			c0-1.98-0.88-3.74-3.24-3.74c-0.76,0-1.39,0.18-1.89,0.54c-1,0.71-1.36,1.81-1.36,3.2C61.19,30.01,61.45,30.89,61.98,31.58z"/>
		<path class="st0" d="M76.22,24.68h0.92c0.33,0,0.37,0.05,0.37,0.37v3.29l3.33-3.15c0.23-0.25,0.39-0.4,0.47-0.45
			c0.08-0.05,0.21-0.07,0.39-0.07h0.23c0.33,0,0.4,0.1,0.04,0.48l-3.55,3.35l3.81,4.28c0.24,0.28,0.21,0.42-0.1,0.42H81.9
			c-0.37,0-0.39-0.01-0.63-0.29l-3.76-4.22v4.19c0,0.28-0.07,0.33-0.33,0.33h-0.23c-0.28,0-0.33-0.05-0.33-0.33v-7.56H76.4
			c-0.3-0.08-0.46-0.24-0.46-0.49C75.95,24.69,75.99,24.68,76.22,24.68z"/>
		<path class="st0" d="M89.51,24.68h0.93c0.33,0,0.37,0.05,0.37,0.37v7.84c0,0.28-0.07,0.33-0.33,0.33h-0.23
			c-0.28,0-0.33-0.05-0.33-0.33v-7.56h-0.24c-0.3-0.08-0.46-0.24-0.46-0.49C89.23,24.69,89.28,24.68,89.51,24.68z"/>
		<path class="st0" d="M105.6,32.89c0,0.28-0.05,0.33-0.33,0.33h-0.49c-0.14,0-0.25-0.06-0.33-0.17l-4.2-7.2v7.04
			c0,0.28-0.06,0.33-0.34,0.33h-0.23c-0.25,0-0.33-0.05-0.33-0.33v-7.56h-0.24c-0.3-0.08-0.45-0.24-0.45-0.49
			c0-0.15,0.04-0.16,0.27-0.16h1.25c0.25,0,0.4,0.11,0.63,0.55l3.9,6.72v-6.9c0-0.33,0.05-0.37,0.37-0.37h0.13
			c0.33,0,0.37,0.05,0.37,0.37V32.89z"/>
		<path class="st0" d="M118.38,28.79h2.22c0.33,0,0.36,0.05,0.36,0.4v3.2c0,0.28-0.04,0.35-0.27,0.45
			c-0.86,0.36-1.77,0.54-2.75,0.54c-1.47,0-2.57-0.4-3.29-1.18c-0.71-0.8-1.07-1.87-1.07-3.23c0-2.83,1.39-4.51,4.41-4.51
			c1.09,0,1.94,0.22,2.58,0.65c0.22,0.16,0.33,0.37,0.33,0.63c0,0.18-0.05,0.25-0.18,0.19c-0.86-0.47-1.76-0.7-2.69-0.7
			c-2.34,0-3.51,1.24-3.51,3.71c0,2.44,1.15,3.65,3.43,3.65c0.81,0,1.53-0.14,2.15-0.42v-2.62h-1.41c-0.39,0-0.62-0.24-0.62-0.58
			C118.07,28.81,118.13,28.79,118.38,28.79z"/>
	</g>
	<g>
		<path class="st0" d="M31.73,33.78c-0.61,0-0.92-0.3-0.92-0.89v-7.07c-0.63-0.25-0.7-0.76-0.7-0.99c0-0.33,0.14-0.72,0.83-0.72
			h3.21c1.81,0,2.93,1.03,2.93,2.68c0,0.82-0.24,1.38-0.57,1.77c0.76,0.46,1.17,1.25,1.17,2.31c0,1.83-1.23,2.92-3.29,2.92H31.73z
			 M34.23,31.89c1.22,0,1.39-0.53,1.39-1.1c0-0.52-0.11-1.07-1.39-1.07h-1.41v2.17H34.23z M34.07,27.82c0.67,0,0.95-0.27,0.95-0.92
			c0-0.56-0.18-0.9-1.09-0.9h-1.11v1.82H34.07z"/>
		<path class="st0" d="M48.68,33.94c-1.55,0-2.74-0.47-3.55-1.39c-0.78-0.92-1.18-2.13-1.18-3.59c0-1.5,0.4-2.72,1.2-3.64
			c0.81-0.95,2-1.44,3.53-1.44c1.54,0,2.73,0.49,3.53,1.45c0.78,0.92,1.18,2.14,1.18,3.63c0,1.47-0.39,2.67-1.17,3.59
			C51.43,33.47,50.23,33.94,48.68,33.94z M48.68,25.78c-0.64,0-1.15,0.14-1.56,0.44c-0.77,0.55-1.13,1.42-1.13,2.73
			c0,0.93,0.23,1.7,0.68,2.28c0.42,0.55,1.08,0.82,2.01,0.82c2.21,0,2.68-1.69,2.68-3.1C51.36,27.76,51.01,25.78,48.68,25.78z"/>
		<path class="st0" d="M64.44,33.94c-1.55,0-2.74-0.47-3.55-1.39c-0.78-0.92-1.18-2.13-1.18-3.59c0-1.5,0.4-2.72,1.2-3.64
			c0.81-0.95,2-1.44,3.53-1.44c1.54,0,2.73,0.49,3.53,1.45c0.78,0.92,1.18,2.14,1.18,3.63c0,1.47-0.39,2.67-1.17,3.59
			C67.19,33.47,65.99,33.94,64.44,33.94z M64.44,25.78c-0.64,0-1.15,0.14-1.56,0.44c-0.77,0.55-1.13,1.42-1.13,2.73
			c0,0.93,0.23,1.7,0.68,2.28c0.42,0.55,1.08,0.82,2.01,0.82c2.21,0,2.68-1.69,2.68-3.1C67.12,27.76,66.77,25.78,64.44,25.78z"/>
		<path class="st0" d="M81.9,33.78c-0.56,0-0.72-0.1-1.05-0.48l-2.77-3.11v2.7c0,0.58-0.32,0.89-0.89,0.89h-0.23
			c-0.59,0-0.89-0.3-0.89-0.89v-7.08c-0.62-0.25-0.69-0.76-0.69-0.98c0-0.27,0.11-0.72,0.84-0.72h0.92c0.64,0,0.94,0.3,0.94,0.94
			v1.98l2.37-2.24c0.32-0.35,0.48-0.47,0.58-0.53c0.17-0.1,0.38-0.15,0.66-0.15h0.23c0.4,0,0.67,0.14,0.79,0.42
			c0.19,0.45-0.17,0.83-0.34,1.02l-3.17,3l3.44,3.87c0.29,0.34,0.37,0.66,0.24,0.95c-0.07,0.16-0.27,0.42-0.76,0.42H81.9z"/>
		<path class="st0" d="M90.26,33.78c-0.59,0-0.89-0.3-0.89-0.89v-7.07c-0.63-0.25-0.7-0.76-0.7-0.98c0-0.27,0.11-0.72,0.84-0.72
			h0.93c0.64,0,0.94,0.3,0.94,0.94v7.84c0,0.58-0.32,0.89-0.89,0.89H90.26z"/>
		<path class="st0" d="M104.78,33.78c-0.33,0-0.62-0.16-0.8-0.42l-3.16-5.42v4.95c0,0.41-0.16,0.89-0.9,0.89h-0.23
			c-0.58,0-0.89-0.32-0.89-0.89v-7.07c-0.62-0.25-0.69-0.76-0.69-0.98c0-0.33,0.14-0.72,0.83-0.72h1.25c0.63,0,0.92,0.45,1.13,0.86
			l2.82,4.87v-4.79c0-0.64,0.3-0.94,0.94-0.94h0.13c0.64,0,0.94,0.3,0.94,0.94v7.84c0,0.59-0.3,0.89-0.89,0.89H104.78z"/>
		<path class="st0" d="M117.95,33.94c-1.63,0-2.87-0.46-3.71-1.37c-0.81-0.91-1.22-2.12-1.22-3.62c0-3.27,1.77-5.08,4.98-5.08
			c1.19,0,2.17,0.25,2.9,0.75c0.38,0.27,0.57,0.66,0.57,1.1c0,0.62-0.42,0.78-0.67,0.78h-0.12l-0.19-0.07
			c-0.8-0.44-1.61-0.65-2.46-0.65c-2.03,0-2.94,0.97-2.94,3.15c0,2.13,0.88,3.09,2.86,3.09c0.58,0,1.11-0.08,1.58-0.24v-1.66h-0.84
			c-0.69,0-1.18-0.48-1.18-1.15c0-0.28,0.11-0.75,0.88-0.75h2.22c0.82,0,0.93,0.52,0.93,0.96v3.2c0,0.43-0.1,0.75-0.61,0.97
			C119.99,33.74,118.99,33.94,117.95,33.94z"/>
	</g>
	<g>
		<path class="st0" d="M34.15,24.68c1.58,0,2.36,0.87,2.36,2.11c0,1.01-0.42,1.65-1.25,1.93c1.24,0.19,1.86,0.91,1.86,2.15
			c0,1.46-0.9,2.35-2.73,2.35h-2.67c-0.29,0-0.35-0.05-0.35-0.33v-7.56h-0.25c-0.3-0.08-0.45-0.24-0.45-0.49
			c0-0.15,0.04-0.16,0.27-0.16H34.15z M32.26,25.44v2.95h1.81c0.98,0,1.52-0.53,1.52-1.48c0-0.98-0.55-1.47-1.65-1.47H32.26z
			 M32.26,29.15v3.3h1.98c1.3,0,1.95-0.56,1.95-1.67c0-1.1-0.65-1.64-1.95-1.64H32.26z"/>
		<path class="st0" d="M51.79,32.18c-0.69,0.8-1.72,1.19-3.11,1.19s-2.42-0.4-3.12-1.19c-0.69-0.81-1.04-1.88-1.04-3.22
			c0-1.36,0.35-2.45,1.06-3.27c0.71-0.83,1.74-1.24,3.1-1.24c1.36,0,2.4,0.41,3.1,1.24c0.7,0.82,1.05,1.91,1.05,3.27
			C52.83,30.3,52.48,31.37,51.79,32.18z M46.22,31.58c0.53,0.69,1.35,1.04,2.46,1.04c2.4,0,3.24-1.74,3.24-3.67
			c0-1.98-0.88-3.74-3.24-3.74c-0.76,0-1.39,0.18-1.89,0.54c-1,0.71-1.36,1.81-1.36,3.2C45.43,30.01,45.69,30.89,46.22,31.58z"/>
		<path class="st0" d="M67.55,32.18c-0.69,0.8-1.72,1.19-3.11,1.19c-1.39,0-2.42-0.4-3.12-1.19c-0.69-0.81-1.04-1.88-1.04-3.22
			c0-1.36,0.35-2.45,1.06-3.27c0.71-0.83,1.74-1.24,3.1-1.24c1.36,0,2.4,0.41,3.1,1.24c0.7,0.82,1.05,1.91,1.05,3.27
			C68.59,30.3,68.24,31.37,67.55,32.18z M61.98,31.58c0.53,0.69,1.35,1.04,2.46,1.04c2.4,0,3.24-1.74,3.24-3.67
			c0-1.98-0.88-3.74-3.24-3.74c-0.76,0-1.39,0.18-1.89,0.54c-1,0.71-1.36,1.81-1.36,3.2C61.19,30.01,61.45,30.89,61.98,31.58z"/>
		<path class="st0" d="M76.22,24.68h0.92c0.33,0,0.37,0.05,0.37,0.37v3.29l3.33-3.15c0.23-0.25,0.39-0.4,0.47-0.45
			c0.08-0.05,0.21-0.07,0.39-0.07h0.23c0.33,0,0.4,0.1,0.04,0.48l-3.55,3.35l3.81,4.28c0.24,0.28,0.21,0.42-0.1,0.42H81.9
			c-0.37,0-0.39-0.01-0.63-0.29l-3.76-4.22v4.19c0,0.28-0.07,0.33-0.33,0.33h-0.23c-0.28,0-0.33-0.05-0.33-0.33v-7.56H76.4
			c-0.3-0.08-0.46-0.24-0.46-0.49C75.95,24.69,75.99,24.68,76.22,24.68z"/>
		<path class="st0" d="M89.51,24.68h0.93c0.33,0,0.37,0.05,0.37,0.37v7.84c0,0.28-0.07,0.33-0.33,0.33h-0.23
			c-0.28,0-0.33-0.05-0.33-0.33v-7.56h-0.24c-0.3-0.08-0.46-0.24-0.46-0.49C89.23,24.69,89.28,24.68,89.51,24.68z"/>
		<path class="st0" d="M105.6,32.89c0,0.28-0.05,0.33-0.33,0.33h-0.49c-0.14,0-0.25-0.06-0.33-0.17l-4.2-7.2v7.04
			c0,0.28-0.06,0.33-0.34,0.33h-0.23c-0.25,0-0.33-0.05-0.33-0.33v-7.56h-0.24c-0.3-0.08-0.45-0.24-0.45-0.49
			c0-0.15,0.04-0.16,0.27-0.16h1.25c0.25,0,0.4,0.11,0.63,0.55l3.9,6.72v-6.9c0-0.33,0.05-0.37,0.37-0.37h0.13
			c0.33,0,0.37,0.05,0.37,0.37V32.89z"/>
		<path class="st0" d="M118.38,28.79h2.22c0.33,0,0.36,0.05,0.36,0.4v3.2c0,0.28-0.04,0.35-0.27,0.45
			c-0.86,0.36-1.77,0.54-2.75,0.54c-1.47,0-2.57-0.4-3.29-1.18c-0.71-0.8-1.07-1.87-1.07-3.23c0-2.83,1.39-4.51,4.41-4.51
			c1.09,0,1.94,0.22,2.58,0.65c0.22,0.16,0.33,0.37,0.33,0.63c0,0.18-0.05,0.25-0.18,0.19c-0.86-0.47-1.76-0.7-2.69-0.7
			c-2.34,0-3.51,1.24-3.51,3.71c0,2.44,1.15,3.65,3.43,3.65c0.81,0,1.53-0.14,2.15-0.42v-2.62h-1.41c-0.39,0-0.62-0.24-0.62-0.58
			C118.07,28.81,118.13,28.79,118.38,28.79z"/>
	</g>
</g>
<g>
	<g>
		<path class="st2" d="M128.69,24.23c0-3.46,0.9-6.2,2.7-8.29c1.85-2.08,4.4-3.13,7.67-3.13c3.65,0,6.35,1.33,8.1,4.03V3.39h-0.47
			c-1.33,0-1.99-1.04-1.99-2.18c0-0.57,0.14-0.62,1.04-0.62h2.18c1.75,0.05,2.6,0.9,2.6,2.65v27.85c0.05,1.52,0.33,1.85,1.42,1.85
			c0.85,0,0.95,0,0.95,0.47c0,1.18-0.85,1.8-2.6,1.8c-2.08,0-3.13-1.14-3.13-3.46v-0.1c-1.75,2.51-4.4,3.74-8.05,3.74
			C132.48,35.4,128.69,31.05,128.69,24.23z M145.46,18.31c-1.28-1.66-3.22-2.46-5.73-2.46c-4.88,0-7.48,3.41-7.48,8.34
			c0,4.88,2.6,8.19,7.53,8.19c2.56,0,4.45-0.81,5.73-2.37c1.28-1.56,1.89-3.5,1.89-5.78C147.4,21.91,146.74,19.92,145.46,18.31z"/>
	</g>
	<g>
		<path class="st0" d="M139.11,35.96c-6.77,0-10.97-4.5-10.97-11.73c0-3.56,0.95-6.47,2.83-8.65c1.95-2.2,4.67-3.32,8.09-3.32
			c3.19,0,5.72,1,7.54,2.96V3.94c-1.45-0.04-2.46-1.15-2.46-2.73c0-1.17,0.81-1.17,1.6-1.17h2.18c2.07,0.06,3.16,1.17,3.16,3.21
			v27.85c0.04,1.29,0.17,1.29,0.87,1.29c0.81,0,1.5,0,1.5,1.03c0,0.88-0.41,2.35-3.16,2.35c-1.43,0-3.09-0.5-3.55-2.7
			C144.91,35.01,142.4,35.96,139.11,35.96z M139.73,16.4c-4.34,0-6.93,2.91-6.93,7.78c0,4.78,2.61,7.64,6.98,7.64
			c2.38,0,4.11-0.71,5.3-2.17c1.17-1.44,1.77-3.26,1.77-5.43c0-2.18-0.61-4.05-1.82-5.58C143.87,17.15,142.09,16.4,139.73,16.4z"/>
	</g>
	<g>
		<path class="st0" d="M128.69,24.23c0-3.46,0.9-6.2,2.7-8.29c1.85-2.08,4.4-3.13,7.67-3.13c3.65,0,6.35,1.33,8.1,4.03V3.39h-0.47
			c-1.33,0-1.99-1.04-1.99-2.18c0-0.57,0.14-0.62,1.04-0.62h2.18c1.75,0.05,2.6,0.9,2.6,2.65v27.85c0.05,1.52,0.33,1.85,1.42,1.85
			c0.85,0,0.95,0,0.95,0.47c0,1.18-0.85,1.8-2.6,1.8c-2.08,0-3.13-1.14-3.13-3.46v-0.1c-1.75,2.51-4.4,3.74-8.05,3.74
			C132.48,35.4,128.69,31.05,128.69,24.23z M145.46,18.31c-1.28-1.66-3.22-2.46-5.73-2.46c-4.88,0-7.48,3.41-7.48,8.34
			c0,4.88,2.6,8.19,7.53,8.19c2.56,0,4.45-0.81,5.73-2.37c1.28-1.56,1.89-3.5,1.89-5.78C147.4,21.91,146.74,19.92,145.46,18.31z"/>
	</g>
</g>
</svg>
